  [1m[36m (0.3ms)[0m  [1mbegin transaction[0m
Started GET "/assets/inite_ace_admin1.css" for 127.0.0.1 at 2014-04-03 11:49:40 -0300
  [1m[35m (0.1ms)[0m  rollback transaction
  [1m[36m (0.0ms)[0m  [1mbegin transaction[0m
Started GET "/assets/inite_ace_admin2.css" for 127.0.0.1 at 2014-04-03 11:49:40 -0300
  [1m[35m (0.1ms)[0m  rollback transaction
  [1m[36m (0.0ms)[0m  [1mbegin transaction[0m
Started GET "/assets/init_ace_admin.js" for 127.0.0.1 at 2014-04-03 11:49:40 -0300
  [1m[35m (0.1ms)[0m  rollback transaction
  [1m[36m (0.4ms)[0m  [1mbegin transaction[0m
Started GET "/assets/init_ace_admin.js" for 127.0.0.1 at 2014-04-03 11:54:09 -0300
  [1m[35m (0.1ms)[0m  rollback transaction
  [1m[36m (0.0ms)[0m  [1mbegin transaction[0m
Started GET "/assets/inite_ace_admin1.css" for 127.0.0.1 at 2014-04-03 11:54:09 -0300
  [1m[35m (0.1ms)[0m  rollback transaction
  [1m[36m (0.1ms)[0m  [1mbegin transaction[0m
Started GET "/assets/inite_ace_admin2.css" for 127.0.0.1 at 2014-04-03 11:54:09 -0300
  [1m[35m (0.1ms)[0m  rollback transaction
  [1m[36m (0.3ms)[0m  [1mbegin transaction[0m
Started GET "/assets/inite_ace_admin2.css" for 127.0.0.1 at 2014-04-03 11:55:09 -0300
  [1m[35m (0.1ms)[0m  rollback transaction
  [1m[36m (0.1ms)[0m  [1mbegin transaction[0m
Started GET "/assets/inite_ace_admin1.css" for 127.0.0.1 at 2014-04-03 11:55:09 -0300
  [1m[35m (0.1ms)[0m  rollback transaction
  [1m[36m (0.1ms)[0m  [1mbegin transaction[0m
Started GET "/assets/init_ace_admin.js" for 127.0.0.1 at 2014-04-03 11:55:09 -0300
  [1m[35m (0.1ms)[0m  rollback transaction
  [1m[36m (0.3ms)[0m  [1mbegin transaction[0m
Started GET "/assets/inite_ace_admin2.css" for 127.0.0.1 at 2014-04-03 12:00:58 -0300
  [1m[35m (0.1ms)[0m  rollback transaction
  [1m[36m (0.1ms)[0m  [1mbegin transaction[0m
Started GET "/assets/inite_ace_admin1.css" for 127.0.0.1 at 2014-04-03 12:00:58 -0300
  [1m[35m (0.1ms)[0m  rollback transaction
  [1m[36m (0.1ms)[0m  [1mbegin transaction[0m
Started GET "/assets/init_ace_admin.js" for 127.0.0.1 at 2014-04-03 12:00:58 -0300
  [1m[35m (0.1ms)[0m  rollback transaction
  [1m[36m (0.2ms)[0m  [1mbegin transaction[0m
Started GET "/assets/init_ace_admin.js" for 127.0.0.1 at 2014-04-03 12:01:24 -0300
  [1m[35m (0.1ms)[0m  rollback transaction
  [1m[36m (0.1ms)[0m  [1mbegin transaction[0m
Started GET "/assets/inite_ace_admin1.css" for 127.0.0.1 at 2014-04-03 12:01:24 -0300
  [1m[35m (0.1ms)[0m  rollback transaction
  [1m[36m (0.1ms)[0m  [1mbegin transaction[0m
Started GET "/assets/inite_ace_admin2.css" for 127.0.0.1 at 2014-04-03 12:01:24 -0300
  [1m[35m (0.1ms)[0m  rollback transaction
  [1m[36m (0.3ms)[0m  [1mbegin transaction[0m
Started GET "/assets/inite_ace_admin2.css" for 127.0.0.1 at 2014-04-03 12:03:56 -0300
  [1m[35m (0.1ms)[0m  rollback transaction
  [1m[36m (0.0ms)[0m  [1mbegin transaction[0m
Started GET "/assets/inite_ace_admin1.css" for 127.0.0.1 at 2014-04-03 12:03:56 -0300
  [1m[35m (0.1ms)[0m  rollback transaction
  [1m[36m (0.1ms)[0m  [1mbegin transaction[0m
Started GET "/assets/init_ace_admin.js" for 127.0.0.1 at 2014-04-03 12:03:56 -0300
  [1m[35m (0.1ms)[0m  rollback transaction
  [1m[36m (0.3ms)[0m  [1mbegin transaction[0m
Started GET "/assets/init_ace_admin.js" for 127.0.0.1 at 2014-04-03 12:09:42 -0300
  [1m[35m (0.1ms)[0m  rollback transaction
  [1m[36m (0.0ms)[0m  [1mbegin transaction[0m
Started GET "/assets/inite_ace_admin1.css" for 127.0.0.1 at 2014-04-03 12:09:42 -0300
  [1m[35m (0.1ms)[0m  rollback transaction
  [1m[36m (0.0ms)[0m  [1mbegin transaction[0m
Started GET "/assets/inite_ace_admin2.css" for 127.0.0.1 at 2014-04-03 12:09:42 -0300
  [1m[35m (0.1ms)[0m  rollback transaction
  [1m[36m (0.2ms)[0m  [1mbegin transaction[0m
Started GET "/assets/ace_admin/init1.css" for 127.0.0.1 at 2014-04-03 12:10:09 -0300
  [1m[35m (0.1ms)[0m  rollback transaction
  [1m[36m (0.1ms)[0m  [1mbegin transaction[0m
Started GET "/assets/ace_admin/init.js" for 127.0.0.1 at 2014-04-03 12:10:09 -0300
  [1m[35m (0.1ms)[0m  rollback transaction
  [1m[36m (0.0ms)[0m  [1mbegin transaction[0m
Started GET "/assets/ace_admin/init2.css" for 127.0.0.1 at 2014-04-03 12:10:09 -0300
  [1m[35m (0.1ms)[0m  rollback transaction
  [1m[36m (0.3ms)[0m  [1mbegin transaction[0m
Started GET "/assets/ace_admin/init.js" for 127.0.0.1 at 2014-04-03 12:10:15 -0300
  [1m[35m (0.1ms)[0m  rollback transaction
  [1m[36m (0.0ms)[0m  [1mbegin transaction[0m
Started GET "/assets/ace_admin/init2.css" for 127.0.0.1 at 2014-04-03 12:10:15 -0300
  [1m[35m (0.1ms)[0m  rollback transaction
  [1m[36m (0.1ms)[0m  [1mbegin transaction[0m
Started GET "/assets/ace_admin/init1.css" for 127.0.0.1 at 2014-04-03 12:10:15 -0300
  [1m[35m (0.1ms)[0m  rollback transaction
  [1m[36m (0.3ms)[0m  [1mbegin transaction[0m
Started GET "/assets/ace_admin/fontawesome-webfont.svg" for 127.0.0.1 at 2014-04-03 12:11:20 -0300
  [1m[35m (0.1ms)[0m  rollback transaction
  [1m[36m (0.1ms)[0m  [1mbegin transaction[0m
Started GET "/assets/ace_admin/init2.css" for 127.0.0.1 at 2014-04-03 12:11:20 -0300
  [1m[35m (0.1ms)[0m  rollback transaction
  [1m[36m (0.0ms)[0m  [1mbegin transaction[0m
Started GET "/assets/ace_admin/init1.css" for 127.0.0.1 at 2014-04-03 12:11:20 -0300
  [1m[35m (0.1ms)[0m  rollback transaction
  [1m[36m (0.1ms)[0m  [1mbegin transaction[0m
Started GET "/assets/ace_admin/init.js" for 127.0.0.1 at 2014-04-03 12:11:20 -0300
  [1m[35m (0.1ms)[0m  rollback transaction
  [1m[36m (0.2ms)[0m  [1mbegin transaction[0m
Started GET "/assets/ace_admin/init1.css" for 127.0.0.1 at 2014-04-03 12:11:41 -0300
  [1m[35m (0.1ms)[0m  rollback transaction
  [1m[36m (0.0ms)[0m  [1mbegin transaction[0m
Started GET "/assets/ace_admin/init.js" for 127.0.0.1 at 2014-04-03 12:11:41 -0300
  [1m[35m (0.1ms)[0m  rollback transaction
  [1m[36m (0.0ms)[0m  [1mbegin transaction[0m
Started GET "/assets/ace_admin/init2.css" for 127.0.0.1 at 2014-04-03 12:11:41 -0300
  [1m[35m (0.1ms)[0m  rollback transaction
  [1m[36m (0.1ms)[0m  [1mbegin transaction[0m
Started GET "/assets/ace_admin/fontawesome-webfont.svg" for 127.0.0.1 at 2014-04-03 12:11:41 -0300
  [1m[35m (0.1ms)[0m  rollback transaction
  [1m[36m (0.2ms)[0m  [1mbegin transaction[0m
Started GET "/assets/ace_admin/fontawesome-webfont.svg" for 127.0.0.1 at 2014-04-03 12:11:56 -0300
  [1m[35m (0.1ms)[0m  rollback transaction
  [1m[36m (0.0ms)[0m  [1mbegin transaction[0m
Started GET "/assets/ace_admin/init2.css" for 127.0.0.1 at 2014-04-03 12:11:56 -0300
  [1m[35m (0.1ms)[0m  rollback transaction
  [1m[36m (0.0ms)[0m  [1mbegin transaction[0m
Started GET "/assets/ace_admin/init1.css" for 127.0.0.1 at 2014-04-03 12:11:56 -0300
  [1m[35m (0.1ms)[0m  rollback transaction
  [1m[36m (0.0ms)[0m  [1mbegin transaction[0m
Started GET "/assets/ace_admin/init.js" for 127.0.0.1 at 2014-04-03 12:11:56 -0300
  [1m[35m (0.1ms)[0m  rollback transaction
  [1m[36m (0.3ms)[0m  [1mbegin transaction[0m
Started GET "/assets/ace_admin/init2.css" for 127.0.0.1 at 2014-04-03 12:37:09 -0300
  [1m[35m (0.1ms)[0m  rollback transaction
  [1m[36m (0.0ms)[0m  [1mbegin transaction[0m
Started GET "/assets/ace_admin/init1.css" for 127.0.0.1 at 2014-04-03 12:37:09 -0300
  [1m[35m (0.1ms)[0m  rollback transaction
  [1m[36m (0.1ms)[0m  [1mbegin transaction[0m
Started GET "/assets/ace_admin/init.js" for 127.0.0.1 at 2014-04-03 12:37:09 -0300
  [1m[35m (0.1ms)[0m  rollback transaction
